<?xml version="1.0" encoding="utf-8"?>
<!-- Generator: Adobe Illustrator 23.1.1, SVG Export Plug-In . SVG Version: 6.00 Build 0)  -->
<svg version="1.1" id="Layer_1" xmlns="http://www.w3.org/2000/svg" xmlns:xlink="http://www.w3.org/1999/xlink" x="0px" y="0px"
	 viewBox="0 0 16 16" style="enable-background:new 0 0 16 16;" xml:space="preserve">
<style type="text/css">
	.st0{fill:#00518C;}
</style>
<path class="st0" d="M12.8,0.8H3.2V4h9.6 M13.6,8c-0.4,0-0.8-0.4-0.8-0.8c0-0.4,0.4-0.8,0.8-0.8c0.4,0,0.8,0.4,0.8,0.8
	C14.4,7.6,14,8,13.6,8 M11.2,13.6H4.8v-4h6.4 M13.6,4.8H2.4C1.1,4.8,0,5.9,0,7.2V12h3.2v3.2h9.6V12H16V7.2C16,5.9,14.9,4.8,13.6,4.8
	z"/>
</svg>
